[gd_scene load_steps=2 format=1]

[sub_resource type="GDScript" id=1]

script/source = "extends Panel\n\n# class member variables go here, for example:\n# var a = 2\n# var b = \"textvar\"\n\nfunc _ready():\n\t# Called every time the node is added to the scene.\n\t# Initialization here\n\tpass\n\nfunc _on_hostButton_pressed():\n\tget_node(\"/root/global\").goto_scene(\"res://scenes/UI/server_lobby.tscn\")\n\nfunc _on_joinButton_pressed():\n\tget_node(\"/root/global\").goto_scene(\"res://scenes/UI/client_lobby.tscn\")"

[node name="Panel" type="Panel"]

focus/ignore_mouse = false
focus/stop_mouse = true
size_flags/horizontal = 2
size_flags/vertical = 2
margin/left = -2.0
margin/top = 1.0
margin/right = 1021.0
margin/bottom = 601.0
script/script = SubResource( 1 )

[node name="GridContainer" type="GridContainer" parent="."]

anchor/left = 3
anchor/top = 3
anchor/right = 3
anchor/bottom = 3
focus/ignore_mouse = false
focus/stop_mouse = false
size_flags/horizontal = 0
size_flags/vertical = 1
size_flags/stretch_ratio = 10.0
margin/left = 169.5
margin/top = 203.0
margin/right = -172.5
margin/bottom = -217.0
custom_constants/vseparation = 20
columns = 1

[node name="joinButton" type="Button" parent="GridContainer"]

rect/min_size = Vector2( 200, 200 )
focus/ignore_mouse = false
focus/stop_mouse = true
size_flags/horizontal = 3
size_flags/vertical = 3
margin/left = 0.0
margin/top = 0.0
margin/right = 342.0
margin/bottom = 200.0
toggle_mode = false
enabled_focus_mode = 2
shortcut = null
text = "Join a game"
flat = false

[node name="hostButton" type="Button" parent="GridContainer"]

rect/min_size = Vector2( 200, 200 )
focus/ignore_mouse = false
focus/stop_mouse = true
size_flags/horizontal = 3
size_flags/vertical = 3
margin/left = 0.0
margin/top = 220.0
margin/right = 342.0
margin/bottom = 420.0
toggle_mode = false
enabled_focus_mode = 2
shortcut = null
text = "Host a game"
flat = false

[connection signal="pressed" from="GridContainer/joinButton" to="." method="_on_joinButton_pressed"]

[connection signal="pressed" from="GridContainer/hostButton" to="." method="_on_hostButton_pressed"]


