[gd_scene load_steps=3 format=1]

[ext_resource path="res://scenes/Game/Card.gd" type="Script" id=1]

[sub_resource type="RectangleShape2D" id=1]

custom_solver_bias = 0.0
extents = Vector2( 10, 10 )

[node name="Area2D" type="Area2D"]

input/pickable = true
shapes/0/shape = SubResource( 1 )
shapes/0/transform = Matrix32( 7.3943, 0, 0, 4.79713, 0.850063, -0.0487995 )
shapes/0/trigger = true
gravity_vec = Vector2( 0, 1 )
gravity = 98.0
linear_damp = 0.1
angular_damp = 1.0
script/script = ExtResource( 1 )

[node name="CollisionShape2D" type="CollisionShape2D" parent="."]

transform/pos = Vector2( 0.850063, -0.0487995 )
transform/scale = Vector2( 7.3943, 4.79713 )
shape = SubResource( 1 )
trigger = true
_update_shape_index = 0

[node name="SpriteBack" type="Sprite" parent="."]

transform/scale = Vector2( 0.5, 0.5 )
z/z = 2
region = true
region_rect = Rect2( 0, 0, 512, 256 )

[node name="Sprite" type="Sprite" parent="."]

transform/scale = Vector2( 0.5, 0.5 )
z/z = 1
region = true
region_rect = Rect2( 0, 0, 512, 256 )


